grid solution 
0.000000e+00 0.000000e+00 
5.000000e-01 1.205472e-01 
1.000000e+00 2.705296e-01 
1.500000e+00 4.777276e-01 
2.000000e+00 7.649308e-01 
2.500000e+00 1.144173e+00 
3.000000e+00 1.609470e+00 
3.500000e+00 2.130878e+00 
4.000000e+00 2.653742e+00 
4.500000e+00 3.106189e+00 
5.000000e+00 3.414814e+00 
5.500000e+00 3.524350e+00 
6.000000e+00 3.414082e+00 
6.500000e+00 3.104166e+00 
7.000000e+00 2.648998e+00 
7.500000e+00 2.120388e+00 
8.000000e+00 1.587322e+00 
8.500000e+00 1.099527e+00 
9.000000e+00 6.791879e-01 
9.500000e+00 3.212610e-01 
1.000000e+01 0.000000e+00 
